\relax 
\providecommand\hyper@newdestlabel[2]{}
\@writefile{lof}{\addvspace {10pt}}
\@writefile{lot}{\addvspace {10pt}}
\@writefile{toc}{\contentsline {chapter}{\chapternumberline {4}Einleitung}{9}{chapter.4}\protected@file@percent }
\newlabel{cha:introduction}{{\M@TitleReference {4}{Einleitung}}{9}{Einleitung}{chapter.4}{}}
\citation{schrijver89}
\citation{conway96}
\@writefile{toc}{\contentsline {section}{\numberline {4.1}Aufbau des Dokuments}{10}{section.4.1}\protected@file@percent }
\newlabel{sec:aufbau}{{\M@TitleReference {4.1}{Aufbau des Dokuments}}{10}{Aufbau des Dokuments}{section.4.1}{}}
\@writefile{toc}{\contentsline {section}{\numberline {4.2}Abbildungen}{10}{section.4.2}\protected@file@percent }
\newlabel{sec:abbildungen}{{\M@TitleReference {4.2}{Abbildungen}}{10}{Abbildungen}{section.4.2}{}}
\@writefile{toc}{\contentsline {section}{\numberline {4.3}Literaturverweise}{10}{section.4.3}\protected@file@percent }
\newlabel{sec:verweise}{{\M@TitleReference {4.3}{Literaturverweise}}{10}{Literaturverweise}{section.4.3}{}}
\@writefile{toc}{\contentsline {section}{\numberline {4.4}Verwendung von Formeln und Tabellen}{10}{section.4.4}\protected@file@percent }
\newlabel{sec:formeln}{{\M@TitleReference {4.4}{Verwendung von Formeln und Tabellen}}{10}{Verwendung von Formeln und Tabellen}{section.4.4}{}}
\newlabel{eqn:K}{{4.1}{11}{Verwendung von Formeln und Tabellen}{equation.4.4.1}{}}
\@writefile{lot}{\contentsline {table}{\numberline {4.1}{\ignorespaces Vergleich verschiedener Algorithmen.\relax }}{12}{table.caption.8}\protected@file@percent }
\newlabel{tab:vergleich}{{\M@TitleReference {4.1}{Vergleich verschiedener Algorithmen.\relax }}{12}{Vergleich verschiedener Algorithmen.\relax }{table.caption.8}{}}
\@writefile{toc}{\contentsline {section}{\numberline {4.5}Tipps}{12}{section.4.5}\protected@file@percent }
\newlabel{sec:tipps}{{\M@TitleReference {4.5}{Tipps}}{12}{Tipps}{section.4.5}{}}
\@setckpt{tips/intro}{
\setcounter{page}{14}
\setcounter{equation}{3}
\setcounter{enumi}{0}
\setcounter{enumii}{0}
\setcounter{enumiii}{0}
\setcounter{enumiv}{0}
\setcounter{footnote}{4}
\setcounter{mpfootnote}{0}
\setcounter{@memmarkcntra}{0}
\setcounter{storedpagenumber}{1}
\setcounter{book}{0}
\setcounter{part}{0}
\setcounter{chapter}{4}
\setcounter{section}{5}
\setcounter{subsection}{0}
\setcounter{subsubsection}{0}
\setcounter{paragraph}{0}
\setcounter{subparagraph}{0}
\setcounter{@ppsavesec}{0}
\setcounter{@ppsaveapp}{0}
\setcounter{vslineno}{0}
\setcounter{poemline}{0}
\setcounter{modulo@vs}{0}
\setcounter{memfvsline}{0}
\setcounter{verse}{0}
\setcounter{chrsinstr}{0}
\setcounter{poem}{0}
\setcounter{newflo@tctr}{4}
\setcounter{@contsubnum}{0}
\setcounter{maxsecnumdepth}{2}
\setcounter{sidefootnote}{0}
\setcounter{pagenote}{0}
\setcounter{pagenoteshadow}{0}
\setcounter{memfbvline}{0}
\setcounter{bvlinectr}{0}
\setcounter{cp@cntr}{0}
\setcounter{ism@mctr}{0}
\setcounter{xsm@mctr}{0}
\setcounter{csm@mctr}{0}
\setcounter{ksm@mctr}{0}
\setcounter{xksm@mctr}{0}
\setcounter{cksm@mctr}{0}
\setcounter{msm@mctr}{0}
\setcounter{xmsm@mctr}{0}
\setcounter{cmsm@mctr}{0}
\setcounter{bsm@mctr}{0}
\setcounter{workm@mctr}{0}
\setcounter{sheetsequence}{26}
\setcounter{lastsheet}{32}
\setcounter{lastpage}{20}
\setcounter{figure}{0}
\setcounter{lofdepth}{1}
\setcounter{table}{1}
\setcounter{lotdepth}{1}
\setcounter{r@tfl@t}{0}
\setcounter{parentequation}{0}
\setcounter{caption@flags}{2}
\setcounter{continuedfloat}{0}
\setcounter{subfigure}{0}
\setcounter{subtable}{0}
\setcounter{float@type}{8}
\setcounter{algorithm}{0}
\setcounter{ALC@unique}{0}
\setcounter{ALC@line}{0}
\setcounter{ALC@rem}{0}
\setcounter{ALC@depth}{0}
\setcounter{Item}{0}
\setcounter{Hfootnote}{5}
\setcounter{memhycontfloat}{0}
\setcounter{Hpagenote}{0}
\setcounter{bookmark@seq@number}{22}
\setcounter{section@level}{1}
}
