\relax 
\providecommand\hyper@newdestlabel[2]{}
\@writefile{lof}{\addvspace {10pt}}
\@writefile{lot}{\addvspace {10pt}}
\@writefile{toc}{\contentsline {chapter}{\chapternumberline {2}Funktionsweise}{3}{chapter.2}\protected@file@percent }
\newlabel{cha:funktionsweise}{{\M@TitleReference {2}{Funktionsweise}}{3}{Funktionsweise}{chapter.2}{}}
\@writefile{toc}{\contentsline {section}{\numberline {2.1}Skin und Skelett}{3}{section.2.1}\protected@file@percent }
\newlabel{sec:skin_und_skelett}{{\M@TitleReference {2.1}{Skin und Skelett}}{3}{Skin und Skelett}{section.2.1}{}}
\@writefile{toc}{\contentsline {subsection}{\numberline {2.1.1}Hierarchische Knochenstruktur}{3}{subsection.2.1.1}\protected@file@percent }
\@writefile{toc}{\contentsline {subsection}{\numberline {2.1.2}Manipulation von Skins}{3}{subsection.2.1.2}\protected@file@percent }
\@writefile{toc}{\contentsline {section}{\numberline {2.2}Keyframes}{3}{section.2.2}\protected@file@percent }
\newlabel{sec:keyframes}{{\M@TitleReference {2.2}{Keyframes}}{3}{Keyframes}{section.2.2}{}}
\@writefile{toc}{\contentsline {section}{\numberline {2.3}Interpolierung}{4}{section.2.3}\protected@file@percent }
\newlabel{sec:interpolierung}{{\M@TitleReference {2.3}{Interpolierung}}{4}{Interpolierung}{section.2.3}{}}
\@setckpt{funktionsweise/funktionsweise}{
\setcounter{page}{5}
\setcounter{equation}{1}
\setcounter{enumi}{0}
\setcounter{enumii}{0}
\setcounter{enumiii}{0}
\setcounter{enumiv}{0}
\setcounter{footnote}{0}
\setcounter{mpfootnote}{0}
\setcounter{@memmarkcntra}{0}
\setcounter{storedpagenumber}{1}
\setcounter{book}{0}
\setcounter{part}{0}
\setcounter{chapter}{2}
\setcounter{section}{3}
\setcounter{subsection}{0}
\setcounter{subsubsection}{0}
\setcounter{paragraph}{0}
\setcounter{subparagraph}{0}
\setcounter{@ppsavesec}{0}
\setcounter{@ppsaveapp}{0}
\setcounter{vslineno}{0}
\setcounter{poemline}{0}
\setcounter{modulo@vs}{0}
\setcounter{memfvsline}{0}
\setcounter{verse}{0}
\setcounter{chrsinstr}{0}
\setcounter{poem}{0}
\setcounter{newflo@tctr}{4}
\setcounter{@contsubnum}{0}
\setcounter{maxsecnumdepth}{2}
\setcounter{sidefootnote}{0}
\setcounter{pagenote}{0}
\setcounter{pagenoteshadow}{0}
\setcounter{memfbvline}{0}
\setcounter{bvlinectr}{0}
\setcounter{cp@cntr}{0}
\setcounter{ism@mctr}{0}
\setcounter{xsm@mctr}{0}
\setcounter{csm@mctr}{0}
\setcounter{ksm@mctr}{0}
\setcounter{xksm@mctr}{0}
\setcounter{cksm@mctr}{0}
\setcounter{msm@mctr}{0}
\setcounter{xmsm@mctr}{0}
\setcounter{cmsm@mctr}{0}
\setcounter{bsm@mctr}{0}
\setcounter{workm@mctr}{0}
\setcounter{sheetsequence}{17}
\setcounter{lastsheet}{32}
\setcounter{lastpage}{20}
\setcounter{figure}{0}
\setcounter{lofdepth}{1}
\setcounter{table}{0}
\setcounter{lotdepth}{1}
\setcounter{r@tfl@t}{0}
\setcounter{parentequation}{0}
\setcounter{caption@flags}{0}
\setcounter{continuedfloat}{0}
\setcounter{subfigure}{0}
\setcounter{subtable}{0}
\setcounter{float@type}{8}
\setcounter{algorithm}{0}
\setcounter{ALC@unique}{0}
\setcounter{ALC@line}{0}
\setcounter{ALC@rem}{0}
\setcounter{ALC@depth}{0}
\setcounter{Item}{0}
\setcounter{Hfootnote}{0}
\setcounter{memhycontfloat}{0}
\setcounter{Hpagenote}{0}
\setcounter{bookmark@seq@number}{11}
\setcounter{section@level}{1}
}
