\relax 
\providecommand\hyper@newdestlabel[2]{}
\@writefile{lof}{\addvspace {10pt}}
\@writefile{lot}{\addvspace {10pt}}
\@writefile{toc}{\contentsline {chapter}{\chapternumberline {3}Weiterführenede Techniken}{5}{chapter.3}\protected@file@percent }
\newlabel{cha:weitere_techniken}{{\M@TitleReference {3}{Weiterführenede Techniken}}{5}{Weiterführenede Techniken}{chapter.3}{}}
\@writefile{toc}{\contentsline {section}{\numberline {3.1}Variieren der Interpolierungsfunktion}{5}{section.3.1}\protected@file@percent }
\newlabel{sec:var_der_interpolierungsfunktion}{{\M@TitleReference {3.1}{Variieren der Interpolierungsfunktion}}{5}{Variieren der Interpolierungsfunktion}{section.3.1}{}}
\@writefile{toc}{\contentsline {section}{\numberline {3.2}Inverse Kinematics}{5}{section.3.2}\protected@file@percent }
\@writefile{toc}{\contentsline {subsection}{\numberline {3.2.1}Algebraische Methode für 2 Gelenke}{5}{subsection.3.2.1}\protected@file@percent }
\@writefile{lof}{\contentsline {figure}{\numberline {3.1}{\ignorespaces Ausgangsposition\relax }}{5}{figure.caption.5}\protected@file@percent }
\providecommand*\caption@xref[2]{\@setref\relax\@undefined{#1}}
\newlabel{fig:roboterarm_0}{{\M@TitleReference {3.1}{Ausgangsposition\relax }}{5}{Ausgangsposition\relax }{figure.caption.5}{}}
\@writefile{lof}{\contentsline {figure}{\numberline {3.2}{\ignorespaces Zielposition\relax }}{5}{figure.caption.5}\protected@file@percent }
\newlabel{fig:roboterarm_1}{{\M@TitleReference {3.2}{Zielposition\relax }}{5}{Zielposition\relax }{figure.caption.5}{}}
\@writefile{toc}{\contentsline {subsection}{\numberline {3.2.2}Cyclic Coordinate Descent}{6}{subsection.3.2.2}\protected@file@percent }
\@writefile{lof}{\contentsline {figure}{\numberline {3.3}{\ignorespaces Ausgangsposition\relax }}{7}{figure.caption.6}\protected@file@percent }
\newlabel{fig:ccd_0}{{\M@TitleReference {3.3}{Ausgangsposition\relax }}{7}{Ausgangsposition\relax }{figure.caption.6}{}}
\@writefile{lof}{\contentsline {figure}{\numberline {3.4}{\ignorespaces \relax }}{7}{figure.caption.6}\protected@file@percent }
\newlabel{fig:ccd_1}{{\M@TitleReference {3.4}{\relax }}{7}{\relax }{figure.caption.6}{}}
\@writefile{lof}{\contentsline {figure}{\numberline {3.5}{\ignorespaces \relax }}{7}{figure.caption.7}\protected@file@percent }
\newlabel{fig:ccd_2}{{\M@TitleReference {3.5}{\relax }}{7}{\relax }{figure.caption.7}{}}
\@writefile{lof}{\contentsline {figure}{\numberline {3.6}{\ignorespaces Zielposition\relax }}{7}{figure.caption.7}\protected@file@percent }
\newlabel{fig:ccd_3}{{\M@TitleReference {3.6}{Zielposition\relax }}{7}{Zielposition\relax }{figure.caption.7}{}}
\@setckpt{weitere_techniken/weitere_techniken}{
\setcounter{page}{8}
\setcounter{equation}{1}
\setcounter{enumi}{0}
\setcounter{enumii}{0}
\setcounter{enumiii}{0}
\setcounter{enumiv}{0}
\setcounter{footnote}{1}
\setcounter{mpfootnote}{0}
\setcounter{@memmarkcntra}{0}
\setcounter{storedpagenumber}{1}
\setcounter{book}{0}
\setcounter{part}{0}
\setcounter{chapter}{3}
\setcounter{section}{2}
\setcounter{subsection}{2}
\setcounter{subsubsection}{0}
\setcounter{paragraph}{0}
\setcounter{subparagraph}{0}
\setcounter{@ppsavesec}{0}
\setcounter{@ppsaveapp}{0}
\setcounter{vslineno}{0}
\setcounter{poemline}{0}
\setcounter{modulo@vs}{0}
\setcounter{memfvsline}{0}
\setcounter{verse}{0}
\setcounter{chrsinstr}{0}
\setcounter{poem}{0}
\setcounter{newflo@tctr}{4}
\setcounter{@contsubnum}{0}
\setcounter{maxsecnumdepth}{2}
\setcounter{sidefootnote}{0}
\setcounter{pagenote}{0}
\setcounter{pagenoteshadow}{0}
\setcounter{memfbvline}{0}
\setcounter{bvlinectr}{0}
\setcounter{cp@cntr}{0}
\setcounter{ism@mctr}{0}
\setcounter{xsm@mctr}{0}
\setcounter{csm@mctr}{0}
\setcounter{ksm@mctr}{0}
\setcounter{xksm@mctr}{0}
\setcounter{cksm@mctr}{0}
\setcounter{msm@mctr}{0}
\setcounter{xmsm@mctr}{0}
\setcounter{cmsm@mctr}{0}
\setcounter{bsm@mctr}{0}
\setcounter{workm@mctr}{0}
\setcounter{sheetsequence}{20}
\setcounter{lastsheet}{32}
\setcounter{lastpage}{20}
\setcounter{figure}{6}
\setcounter{lofdepth}{1}
\setcounter{table}{0}
\setcounter{lotdepth}{1}
\setcounter{r@tfl@t}{0}
\setcounter{parentequation}{0}
\setcounter{caption@flags}{2}
\setcounter{continuedfloat}{0}
\setcounter{subfigure}{0}
\setcounter{subtable}{0}
\setcounter{float@type}{8}
\setcounter{algorithm}{0}
\setcounter{ALC@unique}{0}
\setcounter{ALC@line}{0}
\setcounter{ALC@rem}{0}
\setcounter{ALC@depth}{0}
\setcounter{Item}{0}
\setcounter{Hfootnote}{1}
\setcounter{memhycontfloat}{0}
\setcounter{Hpagenote}{0}
\setcounter{bookmark@seq@number}{16}
\setcounter{section@level}{2}
}
