\contentsline {chapter}{Danksagung}{i}{chapter*.1}%
\contentsline {chapter}{Selbstständigkeitserklärung}{iii}{chapter*.2}%
\contentsline {chapter}{Inhaltsverzeichnis}{v}{section*.3}%
\contentsline {chapter}{Abbildungsverzeichnis}{vii}{section*.4}%
\contentsline {chapter}{\chapternumberline {1}Einleitung}{1}{chapter.1}%
\contentsline {chapter}{\chapternumberline {2}Funktionsweise}{3}{chapter.2}%
\contentsline {section}{\numberline {2.1}Skin und Skelett}{3}{section.2.1}%
\contentsline {subsection}{\numberline {2.1.1}Hierarchische Knochenstruktur}{3}{subsection.2.1.1}%
\contentsline {subsection}{\numberline {2.1.2}Manipulation von Skins}{3}{subsection.2.1.2}%
\contentsline {section}{\numberline {2.2}Keyframes}{3}{section.2.2}%
\contentsline {section}{\numberline {2.3}Interpolierung}{4}{section.2.3}%
\contentsline {chapter}{\chapternumberline {3}Weiterführenede Techniken}{5}{chapter.3}%
\contentsline {section}{\numberline {3.1}Variieren der Interpolierungsfunktion}{5}{section.3.1}%
\contentsline {section}{\numberline {3.2}Inverse Kinematics}{5}{section.3.2}%
\contentsline {subsection}{\numberline {3.2.1}Algebraische Methode für 2 Gelenke}{5}{subsection.3.2.1}%
\contentsline {subsection}{\numberline {3.2.2}Cyclic Coordinate Descent}{6}{subsection.3.2.2}%
\contentsline {chapter}{\chapternumberline {4}Einleitung}{9}{chapter.4}%
\contentsline {section}{\numberline {4.1}Aufbau des Dokuments}{10}{section.4.1}%
\contentsline {section}{\numberline {4.2}Abbildungen}{10}{section.4.2}%
\contentsline {section}{\numberline {4.3}Literaturverweise}{10}{section.4.3}%
\contentsline {section}{\numberline {4.4}Verwendung von Formeln und Tabellen}{10}{section.4.4}%
\contentsline {section}{\numberline {4.5}Tipps}{12}{section.4.5}%
\contentsline {appendix}{\chapternumberline {A}Lorem Ipsum}{15}{appendix.A}%
\contentsline {chapter}{Glossar}{17}{appendix*.9}%
\contentsline {chapter}{Literaturverzeichnis}{19}{appendix*.10}%
