\relax 
\providecommand\hyper@newdestlabel[2]{}
\providecommand*{\memsetcounter}[2]{}
\providecommand\HyperFirstAtBeginDocument{\AtBeginDocument}
\HyperFirstAtBeginDocument{\ifx\hyper@anchor\@undefined
\global\let\oldcontentsline\contentsline
\gdef\contentsline#1#2#3#4{\oldcontentsline{#1}{#2}{#3}}
\global\let\oldnewlabel\newlabel
\gdef\newlabel#1#2{\newlabelxx{#1}#2}
\gdef\newlabelxx#1#2#3#4#5#6{\oldnewlabel{#1}{{#2}{#3}}}
\AtEndDocument{\ifx\hyper@anchor\@undefined
\let\contentsline\oldcontentsline
\let\newlabel\oldnewlabel
\fi}
\fi}
\global\let\hyper@last\relax 
\gdef\HyperFirstAtBeginDocument#1{#1}
\providecommand\HyField@AuxAddToFields[1]{}
\providecommand\HyField@AuxAddToCoFields[2]{}
\@input{acknow/acknow.aux}
\@input{erklaerung/erklaerung.aux}
\@writefile{toc}{\contentsline {chapter}{Inhaltsverzeichnis}{v}{section*.3}\protected@file@percent }
\@writefile{toc}{\contentsline {chapter}{Abbildungsverzeichnis}{vii}{section*.4}\protected@file@percent }
\@input{intro/intro.aux}
\@input{funktionsweise/funktionsweise.aux}
\@input{weitere_techniken/weitere_techniken.aux}
\@input{tips/intro.aux}
\@input{anhang/anhang.aux}
\@input{glossar/glossar.aux}
\bibdata{abschlussarbeit}
\bibstyle{alphadin}
\@writefile{toc}{\contentsline {chapter}{Literaturverzeichnis}{19}{appendix*.10}\protected@file@percent }
\memsetcounter{lastsheet}{32}
\memsetcounter{lastpage}{20}
\gdef \@abspage@last{32}
